foodName,category,price,unit,imageUrl
240ml四洲經典粒粒橙汁,DRINK,5,CAN,240ml四洲經典粒粒橙汁.png
250ml維他-檸檬茶,DRINK,5,PACK,250ml維他-檸檬茶.jpg
250ml維他-朱古力奶,DRINK,5,PACK,250ml維他-朱古力奶.jpg
330ml(錫袋)利繽納,DRINK,7,PACK,330ml(錫袋)利繽納.jpg
245ml (幼罐)寶礦力水特,DRINK,7,CAN,245ml (幼罐)寶礦力水特.jpg
240ml(罐裝)S&W 芒果汁,DRINK,7,CAN,240ml(罐裝)S_W 芒果汁.jpg
250ml雀巢咖啡。香滑,DRINK,7,CAN,250ml雀巢咖啡。香滑.png
250ml雀巢咖啡。香濃,DRINK,7,CAN,250ml雀巢咖啡。香濃.jpeg
315ml(罐裝)檸檬茶,DRINK,7,CAN,315ml(罐裝)檸檬茶.jpg
330ml(罐裝)可口可樂 - ZERO,DRINK,7,CAN,330ml(罐裝)可口可樂 - ZERO.jpg
330ml(罐裝)可口可樂 - 原味,DRINK,7,CAN,330ml(罐裝)可口可樂 - 原味.jpg
330ml(罐裝) 玉泉忌廉,DRINK,7,CAN,330ml(罐裝) 玉泉忌廉.jpg
330ml(罐裝)玉泉梳打水,DRINK,7,CAN,330ml(罐裝)玉泉梳打水.jpeg
330ml葡萄適-原味,DRINK,7,BOTTLE,330ml葡萄適-原味.jpg
420ml美粒果-果粒橙,DRINK,9,BOTTLE,420ml美粒果-果粒橙.jpg
500ml津路烏龍茶,DRINK,9,BOTTLE,500ml津路烏龍茶.png
500ml道地極品-解。綠茶,DRINK,9,BOTTLE,500ml道地極品-解。綠茶.png
500ml CCLemon,DRINK,9,BOTTLE,500ml CCLemon.png
330ml The Berry Company。藍莓汁,DRINK,15,BOTTLE,330ml The Berry Company。藍莓汁.jpg
330ml The Berry Company。石榴汁,DRINK,15,BOTTLE,330ml The Berry Company。石榴汁.jpg
250mlCoCoDay椰子水,DRINK,7,BOTTLE,250mlCoCoDay椰子水.jpeg
330ml伯朗咖啡-特選咖啡,DRINK,7,CAN,伯朗咖啡-特選咖啡.jpeg
媽咪杯。咖哩喇沙,NOODLES,9,CUP,媽咪杯。咖哩喇沙.jpg
日清出前一丁碗麵。麻油味,NOODLES,9,CUP,日清出前一丁碗麵。麻油味.jpg
日清出前一丁碗麵。豬骨味,NOODLES,9,CUP,日清出前一丁碗麵。豬骨味.jpg
日清出前一丁碗麵。韓辣味,NOODLES,9,CUP,日清出前一丁碗麵。韓辣味.jpg
合味道杯麵。咖喱,NOODLES,9,CUP,合味道杯麵。咖喱.jpg
合味道杯麵。五香牛肉,NOODLES,9,CUP,合味道杯麵。五香牛肉.jpg
合味道杯麵。海鮮,NOODLES,9,CUP,合味道杯麵。海鮮.jpg
利是 夾心餅。芝士味,SNACK,3,BAG,利是 夾心餅。芝士味.jpg
Ovaltine朱古力夾心餅,SNACK,3,BAG,Ovaltine朱古力夾心餅.jpg
Oreo夾心餅-原味,SNACK,3,BAG,Oreo夾心餅-原味.jpg
韓國烤紫菜。原味,SNACK,3,BAG,韓國烤紫菜。原味.jpg
韓國烤紫菜。芥末,SNACK,3,BAG,韓國烤紫菜。芥末.jpg
迷你烤多士 - 蒜蓉味,SNACK,3,BAG,迷你烤多士 - 蒜蓉味.jpg
超味魷魚,SNACK,3,BAG,超味魷魚.jpeg
樂天小熊餅-朱古力,SNACK,3,BAG,樂天小熊餅-朱古力.jpeg
武平作蝦餅,SNACK,3,BAG,武平作蝦餅.jpeg
6gYaokin美味棒。忌廉湯味,SNACK,3,BAG,6gYaokin美味棒。忌廉湯味.jpg
6gYaokin美味棒。芝士味,SNACK,3,BAG,6gYaokin美味棒。芝士味.jpg
固力果百奇餅乾條-沙律,SNACK,3,BAG,固力果百奇餅乾條-沙律.jpg
固力果百奇餅乾條-草莓,SNACK,3,BAG,固力果百奇餅乾條-草莓.jpg
31.8g 多樂脆粟米片。芝士,SNACK,5,BAG,31.8g 多樂脆粟米片。芝士.jpg
25g卡樂B薯片-熱浪,SNACK,5,BAG,25g卡樂B薯片-熱浪.jpg
百邦迷你條裝-清湯味薯片,SNACK,7,BAG,百邦迷你條裝-清湯味薯片.jpg
35gWIZARD醒目牌系列。淮鹽花生,SNACK,7,BAG,35gWIZARD醒目牌系列。淮鹽花生.jpeg
14.2g藍鑽石杏仁-蜜糖焗杏仁,SNACK,7,BAG,14.2g藍鑽石杏仁-蜜糖焗杏仁.jpg
(盒裝)泰國固力果百力滋-香辣燒烤,SNACK,7,BAG,(盒裝)泰國固力果百力滋-香辣燒烤.jpg
21g(掛裝)旺旺黑白配,SNACK,3,BAG,21g(掛裝)旺旺黑白配.jpg
40g卡樂B蝦條。原味,SNACK,7,BAG,40g卡樂B蝦條。原味.jpg
20gMEKO一口脆魚乾。芥末味,SNACK,7,BAG,20gMEKO一口脆魚乾。芥末味.jpg
20gMEKO一口脆魚乾。冬蔭功味,SNACK,7,BAG,20gMEKO一口脆魚乾。冬蔭功味.jpg
40g(包裝)M&M's朱古力-花生,SNACK,8,BAG,40g(包裝)M_M_s朱古力-花生.jpg
(罐裝)53g品客薯片-忌廉洋蔥,SNACK,9,CAN,(罐裝)53g品客薯片-忌廉洋蔥.jpg
55g卡樂B薯片。薄餅,SNACK,9,BAG,55g卡樂B薯片。薄餅.jpg
110g德國橡皮軟糖。草莓士的,SNACK,10,BAG,110g德國橡皮軟糖。草莓士的.jpg
110g德國橡皮軟糖。酸砂可樂,SNACK,10,BAG,110g德國橡皮軟糖。酸砂可樂.jpg
益達無糖香口珠 ,SNACK,10,BAG,益達無糖香口珠.jpg
(迷你包裝)HARIBO橡皮糖。迷你熊仔,SNACK,2,BAG,(迷你包裝)HARIBO橡皮糖。迷你熊仔.jpeg
41.5gKitKat(4指)朱古力,SNACK,8,BAG,KitKat(4指)朱古力.png
旺旺-雪餅,SNACK,2,BAG,旺旺-雪餅.jpg
57g森永軟糖-提子,SNACK,6,BAG,森永軟糖-提子.jpg
桂格燕麥曲奇-提子 ,SNACK,4,BAG,桂格燕麥曲奇-提子.jpeg
麥維他消化餅條-原味,SNACK,3,BAG,麥維他消化餅條-原味.jpg
小老闆紫菜。原味,SNACK,2,BAG,小老闆紫菜。原味.jpeg
利是夾心餅。檸檬,SNACK,3,BAG,利是夾心餅。檸檬.png