id,Description,Seller Message,Created (UTC),Amount,Amount Refunded,Currency,Converted Amount,Converted Amount Refunded,Fee,Tax,Converted Currency,Status,Statement Descriptor,Customer ID,Customer Description,Customer Email,Captured,Card ID,Invoice ID,Transfer,shoppingCart (metadata)
ch_1HywhgFiPP4ykMuwG4txV1Xq,TecStore@Tsuen Wan 27/F,Payment complete.,2020-12-16 09:53,8.00,0.00,hkd,8.00,0.00,2.62,0.00,hkd,Paid,,cus_Ia6omEWjuwPSUx,Tsuen Wan 27/F,tsuen.wan.27F@gmail.com,true,pm_1HywhfFiPP4ykMuwe2eXzkva,,,"240ml四洲經典粒粒橙汁		1
Oreo夾心餅-原味		1"
ch_1Hywc4FiPP4ykMuwHhSa3KYG,TecStore@Tsuen Wan 27/F,Payment complete.,2020-12-16 09:48,8.00,0.00,hkd,8.00,0.00,2.62,0.00,hkd,Paid,,cus_Ia6omEWjuwPSUx,Tsuen Wan 27/F,tsuen.wan.27F@gmail.com,true,pm_1Hywc4FiPP4ykMuwtzCmCYy5,,,"240ml四洲經典粒粒橙汁		1
固力果百奇餅乾條-沙律		1"
ch_1HywU6FiPP4ykMuwItCUKdDR,TecStore@Tsuen Wan 27/F,Payment complete.,2020-12-16 09:39,8.00,0.00,hkd,8.00,0.00,2.62,0.00,hkd,Paid,,,,,true,pm_1HywU5FiPP4ykMuw9SegK4Zf,,,240ml四洲經典粒粒橙汁		1;固力果百奇餅乾條-沙律		1
ch_1HywORFiPP4ykMuwhKCHDXDM,TecStore@Tsuen Wan 27/F,Payment complete.,2020-12-16 09:33,8.00,0.00,hkd,8.00,0.00,2.62,0.00,hkd,Paid,,,,,true,pm_1HywOQFiPP4ykMuwjdZPxFmO,,,"240ml四洲經典粒粒橙汁		1,Oreo夾心餅-原味		1"
ch_1HywLNFiPP4ykMuwlnIPqj3o,TecStore@Tsuen Wan 27/F,Payment complete.,2020-12-16 09:30,8.00,0.00,hkd,8.00,0.00,2.62,0.00,hkd,Paid,,,,,true,pm_1HywLMFiPP4ykMuwaRV7dMRl,,,"240ml四洲經典粒粒橙汁		1
Oreo夾心餅-原味		1"
ch_1HywK4FiPP4ykMuwP0VZ2U0Q,TecStore@Tsuen Wan 27/F,Payment complete.,2020-12-16 09:29,8.00,0.00,hkd,8.00,0.00,2.62,0.00,hkd,Paid,,,,,true,pm_1HywK3FiPP4ykMuwLLWbLqUG,,,"240ml四洲經典粒粒橙汁 1
韓國烤紫菜。原味 1"
ch_1HywIJFiPP4ykMuwpfJiONbR,TecStore@Tsuen Wan 27/F,Payment complete.,2020-12-16 09:27,8.00,0.00,hkd,8.00,0.00,2.62,0.00,hkd,Paid,,,,,true,pm_1HywIIFiPP4ykMuwvEU8PWXN,,,"[object Object] 1
[object Object] 1"
ch_1HywGdFiPP4ykMuwZDs2Gxqi,TecStore@Tsuen Wan 27/F,Payment complete.,2020-12-16 09:25,8.00,0.00,hkd,8.00,0.00,2.62,0.00,hkd,Paid,,,,,true,pm_1HywGcFiPP4ykMuwCQGUgzH4,,,"undefined 1
undefined 1"
ch_1HyubEFiPP4ykMuwRkdOLGcK,TecStore@Tsuen Wan 27/F,Payment complete.,2020-12-16 07:39,8.00,0.00,hkd,8.00,0.00,2.62,0.00,hkd,Paid,,,,,true,pm_1HyubEFiPP4ykMuwa3nlCHMs,,,
ch_1HyuB1FiPP4ykMuwYjsF9qmq,TecStore@Tsuen Wan 27/F,Payment complete.,2020-12-16 07:11,8.00,0.00,hkd,8.00,0.00,2.62,0.00,hkd,Paid,,,,,true,pm_1HyuB0FiPP4ykMuw5Qd3DJQV,,,"[{""food"":{""id"":1,""foodName"":""240ml四洲經典粒粒橙汁"",""category"":""DRINK"",""price"":5,""unit"":""罐"",""quantity"":10,""imageUrl"":""https://www.parknshop.com/medias/sys_master/front/prd/9314024751134.jpg"",""stocks"":[],""inventories"":[]},""quantityInCart"":1},{""food"":{""id"":21,""foodName"":""利是 夾心餅。芝士味"",""category"":""SNACK"",""price"":3,""unit"":""包"",""quantity"":10,""imageUrl"":""https://www.parknshop.com/medias/sys_master/front/prd/9392092938270.jpg"",""stocks"":[],""inventories"":[]},""quantityInCart"":1}]"
ch_1HytihFiPP4ykMuw5f8YtgPa,TecStore@Tsuen Wan 27/F,Payment complete.,2020-12-16 06:42,8.00,0.00,hkd,8.00,0.00,2.62,0.00,hkd,Paid,,,,,true,pm_1HytihFiPP4ykMuwPrd8dMxQ,,,
